{
  "permission_sets": [
    {
      "height": 0,
      "permissions": [
        {
          "path": "space1",
          "public_key": "*"
        },
        {
          "path": "space2",
          "public_key": "*"
        }
      ]
    }
  ],
  "validator_sets": [
    {
      "height": 0,
      "validators": [
        {
          "public_key": "IgaBE+25uuZ32VT2oX6cvN3CuwUOvzZIZqJN+A4KrUA=",
          "power": 1
        }
      ]
    }
  ]
}